[{
 "relation": ["delegate_permission/common.handle_all_urls"],
 "target": {
   "namespace": "android_app",
   "package_name": "com.keyy",
   "sha256_cert_fingerprints":
   ["6D:A2:A1:49:5E:BF:20:7F:02:79:F9:AD:73:8B:75:E9:DA:58:99:28:6C:FE:0E:7D:94:D3:B4:E7:40:7E:9C:C7"]
 }
}]